Cluster ID,Confidence_score,Id,ln,dob,gn,fn,canonical_Id,canonical_dob,canonical_fn,canonical_ln,canonical_gn
5,0.9464014619588852,1,SMITH JR,01/03/68,F,WILLIAM,b'1',b'01/03/68',b'william',b'salter jr',b'f'
5,0.9481139481067657,2,ROTHMEYER JR,01/03/68,F,WILLIAM,b'1',b'01/03/68',b'william',b'salter jr',b'f'
5,0.8876622468233109,3,ASBY JR,01/03/68,F,WILLIAM,b'1',b'01/03/68',b'william',b'salter jr',b'f'
5,0.9473288357257843,4,SALTER JR,01/03/68,F,WILLIAM,b'1',b'01/03/68',b'william',b'salter jr',b'f'
5,0.9473288357257843,5,SALTER JR,01/03/68,F,WILLIAM,b'1',b'01/03/68',b'william',b'salter jr',b'f'
6,0.9830688163638115,6,BLAND JR,21/02/62,F,WILLIAM,b'10',b'21/02/62',b'william',b'bland',b'f'
6,0.9830688163638115,7,BLAND JR,21/02/62,F,WILLIAM,b'10',b'21/02/62',b'william',b'bland',b'f'
6,0.9830688163638115,8,BLAND JR,21/02/62,F,WILLIAM,b'10',b'21/02/62',b'william',b'bland',b'f'
6,0.8841251656413078,9,SHAFFER JR,21/02/62,F,WILLIAM,b'10',b'21/02/62',b'william',b'bland',b'f'
6,0.8841251656413078,10,SHAFFER JR,21/02/62,F,WILLIAM,b'10',b'21/02/62',b'william',b'bland',b'f'
6,0.9318818673491478,11,BLAND III,21/02/62,F,WILLIAM,b'10',b'21/02/62',b'william',b'bland',b'f'
6,0.9060361608862877,12,BLAND JR,21/02/62,F,BILL,b'10',b'21/02/62',b'william',b'bland',b'f'
6,0.9949641674757004,13,BLAND,21/02/62,F,WILLIAM,b'10',b'21/02/62',b'william',b'bland',b'f'
6,0.9830688163638115,14,BLAND JR,21/02/62,F,WILLIAM,b'10',b'21/02/62',b'william',b'bland',b'f'
7,0.9999441504478455,15,BLAND JR,08/06/54,F,WILLIAM,b'15',b'08/06/54',b'william',b'bland jr',b'f'
7,0.9999441504478455,16,BLAND JR,08/06/54,F,WILLIAM,b'15',b'08/06/54',b'william',b'bland jr',b'f'
8,0.9664750695228577,17,BLAND JR,25/10/53,F,WILLIAM,b'17',b'25/10/53',b'william',b'bland jr',b'f'
8,0.9664750695228577,18,BLAND JR,25/10/53,F,WILLIAM,b'17',b'25/10/53',b'william',b'bland jr',b'f'
8,0.9330059885978699,19,SHAFFER JR,25/10/53,F,WILLIAM,b'17',b'25/10/53',b'william',b'bland jr',b'f'
10,0.9548612833023071,20,DUNCAN JR,25/10/53,F,THOMAS,b'20',b'25/10/53',b'thomas',b'duncan jr',b'f'
9,0.9987325072288513,21,CARLSON JR,25/10/53,F,ROY,b'21',b'25/10/53',b'roy',b'carlson jr',b'f'
9,0.9987325072288513,22,CARLSON JR,25/10/53,F,RON,b'21',b'25/10/53',b'roy',b'carlson jr',b'f'
10,0.9548612833023071,23,DUNCAN JR,25/10/53,F,ROY,b'20',b'25/10/53',b'thomas',b'duncan jr',b'f'
18,0.9999353686968485,24,MICHAELSON,25/10/53,M,ROY,b'24',b'25/10/53',b'roy',b'michaelson',b'm'
18,0.9999353686968485,25,MICHAELSON JR,25/10/53,M,ROY,b'24',b'25/10/53',b'roy',b'michaelson',b'm'
18,0.9999353686968485,26,MICHAELSON,25/10/53,M,ROY,b'24',b'25/10/53',b'roy',b'michaelson',b'm'
18,0.9999353686968485,27,MICHAELSON JR,25/10/53,M,ROY,b'24',b'25/10/53',b'roy',b'michaelson',b'm'
24,,28,MICHAELSON JR,01/05/51,M,ROY,,,,,
22,0.99994415,29,MICHAELSON JR,17/06/48,M,ROY,b'29',b'17/06/48',b'roy',b'michaelson jr',b'm'
22,0.99994415,30,MICHAELSON JR,17/06/48,M,ROY,b'29',b'17/06/48',b'roy',b'michaelson jr',b'm'
23,0.9856215715408325,31,MICHAELSON JR,09/04/47,M,ROY,b'31',b'09/04/47',b'robert',b'michaelson jr',b'm'
23,0.9992657899856567,32,MICHAELSON JR,09/04/47,M,ROBERT,b'31',b'09/04/47',b'robert',b'michaelson jr',b'm'
23,0.9856215715408325,33,MICHAELSON JR,09/04/47,M,BOB,b'31',b'09/04/47',b'robert',b'michaelson jr',b'm'
1,0.99941903,34,MUSTAPHA JR,11/03/47,M,OWEN,b'34',b'11/03/47',b'owen',b'mustapha jr',b'm'
1,0.99941903,35,MUSTAPHA JR,11/03/47,M,OWAN,b'34',b'11/03/47',b'owen',b'mustapha jr',b'm'
2,0.9999441504478455,36,HOUGHTON JR,31/01/46,M,LAWRENCE,b'36',b'31/01/46',b'lawrence',b'houghton jr',b'm'
2,0.9999441504478455,37,HOUGHTON JR,31/01/46,M,LAWRENCE,b'36',b'31/01/46',b'lawrence',b'houghton jr',b'm'
2,0.9999441504478455,38,HOUGHTON JR,31/01/46,M,LAWRENCE,b'36',b'31/01/46',b'lawrence',b'houghton jr',b'm'
3,0.9268650412559509,39,LIND JR,31/01/46,M,LAWRENCE,b'40',b'31/01/46',b'lawrence',b'lind jr',b'm'
3,0.9268650412559509,40,LIND JR,31/01/46,M,LAWRENCE,b'40',b'31/01/46',b'lawrence',b'lind jr',b'm'
3,0.9268650412559509,41,LIND JR,31/01/46,M,KENNETH,b'40',b'31/01/46',b'lawrence',b'lind jr',b'm'
3,0.9268650412559509,42,LIND JR,31/01/46,M,KENNETH,b'40',b'31/01/46',b'lawrence',b'lind jr',b'm'
11,0.9810846,43,LIND JR,20/01/46,M,JOHN,b'43',b'20/01/46',b'john',b'lind jr',b'm'
11,0.9810846,44,CAIN JR,20/01/46,M,JOHN,b'43',b'20/01/46',b'john',b'lind jr',b'm'
25,,45,CLARK,09/06/45,M,JOHN,,,,,
12,0.9997338,46,CLARK,09/02/45,M,RONALD,b'46',b'09/02/45',b'ronald',b'clark',b'm'
12,0.9997338,47,CLARK,09/02/45,M,DONALD,b'46',b'09/02/45',b'ronald',b'clark',b'm'
14,0.9858748435974121,48,CLARK,16/12/44,M,JOHN,b'50',b'16/12/44',b'john',b'michaelson jr',b'm'
14,0.9810616970062256,49,CLARK JR,16/12/44,M,JOHN,b'50',b'16/12/44',b'john',b'michaelson jr',b'm'
14,0.9810616970062256,50,CLARK JR,16/12/44,M,JOHN,b'50',b'16/12/44',b'john',b'michaelson jr',b'm'
14,0.9826728343963623,51,MICHAELSON JR,16/12/44,M,JOHN,b'50',b'16/12/44',b'john',b'michaelson jr',b'm'
14,0.9826728343963623,52,MICHAELSON JR,16/12/44,M,JOHN,b'50',b'16/12/44',b'john',b'michaelson jr',b'm'
14,0.9826728343963623,53,MICHAELSON JR,16/12/44,M,JOHN,b'50',b'16/12/44',b'john',b'michaelson jr',b'm'
17,0.9901255667209625,54,MICHAELSON JR,24/04/40,M,JOHN,b'54',b'24/06/39',b'john',b'michaelson jr',b'm'
17,0.9901255667209625,55,MICHAELSON JR,24/04/40,M,JOHN,b'54',b'24/06/39',b'john',b'michaelson jr',b'm'
17,0.9933984279632568,56,MICHAELSON JR,24/06/39,M,JOHN,b'54',b'24/06/39',b'john',b'michaelson jr',b'm'
17,0.9933984279632568,57,MICHAELSON JR,24/06/39,M,JOHN,b'54',b'24/06/39',b'john',b'michaelson jr',b'm'
17,0.9933984279632568,58,MICHAELSON JR,24/06/39,M,JOHN,b'54',b'24/06/39',b'john',b'michaelson jr',b'm'
16,0.9999441504478455,59,MICHAELSON JR,24/06/39,M,JAMES,b'59',b'24/06/39',b'james',b'michaelson jr',b'm'
16,0.9999441504478455,60,MICHAELSON JR,24/06/39,M,JAMES,b'59',b'24/06/39',b'james',b'michaelson jr',b'm'
15,0.9978562593460083,61,MICHAELSON JR,24/06/39,M,JACK,b'61',b'24/06/39',b'jack',b'michaelson jr',b'm'
15,0.9978562593460083,62,MICHAELSON JR,09/06/39,M,JACK,b'61',b'24/06/39',b'jack',b'michaelson jr',b'm'
13,0.9999441504478455,63,LARSON JR,09/06/39,M,HAROLD,b'63',b'09/06/39',b'harold',b'larson jr',b'm'
13,0.9999441504478455,64,LARSON JR,09/06/39,M,HAROLD,b'63',b'09/06/39',b'harold',b'larson jr',b'm'
0,0.9152407305581229,65,MUSTAPHA JR,07/10/37,M,HAROLD,b'75',b'07/10/37',b'harold',b'melvin jr',b'm'
0,0.8780045339039394,66,HOUGHTON JR,07/10/37,M,HAROLD,b'75',b'07/10/37',b'harold',b'melvin jr',b'm'
0,0.974599491982233,67,MELVIN JR,07/10/37,M,HAROLD,b'75',b'07/10/37',b'harold',b'melvin jr',b'm'
0,0.974599491982233,68,MELVIN JR,07/10/37,M,HAROLD,b'75',b'07/10/37',b'harold',b'melvin jr',b'm'
0,0.974599491982233,69,MELVIN JR,07/10/37,M,HAROLD,b'75',b'07/10/37',b'harold',b'melvin jr',b'm'
0,0.974599491982233,70,MELVIN JR,07/10/37,M,HAROLD,b'75',b'07/10/37',b'harold',b'melvin jr',b'm'
0,0.974599491982233,71,MELVIN JR,07/10/37,M,HAROLD,b'75',b'07/10/37',b'harold',b'melvin jr',b'm'
0,0.974599491982233,72,MELVIN JR,07/10/37,M,HAROLD,b'75',b'07/10/37',b'harold',b'melvin jr',b'm'
0,0.974599491982233,73,MELVIN JR,07/10/37,M,HAROLD,b'75',b'07/10/37',b'harold',b'melvin jr',b'm'
0,0.974599491982233,74,MELVIN JR,07/10/37,M,HAROLD,b'75',b'07/10/37',b'harold',b'melvin jr',b'm'
0,0.974599491982233,75,MELVIN JR,07/10/37,M,HAROLD,b'75',b'07/10/37',b'harold',b'melvin jr',b'm'
0,0.9664583035877773,76,CHAVAS JR,07/10/37,M,HAROLD,b'75',b'07/10/37',b'harold',b'melvin jr',b'm'
0,0.9664583035877773,77,CHAVAS JR,07/10/37,M,HAROLD,b'75',b'07/10/37',b'harold',b'melvin jr',b'm'
0,0.9664583035877773,78,CHAVAS JR,07/10/37,M,HAROLD,b'75',b'07/10/37',b'harold',b'melvin jr',b'm'
0,0.9664583035877773,79,CHAVAS JR,07/10/37,M,HAROLD,b'75',b'07/10/37',b'harold',b'melvin jr',b'm'
0,0.9806116620699564,80,MICHAELSON JR,07/10/37,M,HAROLD,b'75',b'07/10/37',b'harold',b'melvin jr',b'm'
0,0.9806116620699564,81,MICHAELSON JR,07/10/37,M,HAROLD,b'75',b'07/10/37',b'harold',b'melvin jr',b'm'
0,0.8854812213352748,82,SMITH JR,07/10/37,M,HAROLD,b'75',b'07/10/37',b'harold',b'melvin jr',b'm'
0,0.9664583035877773,83,CHAVAS JR,07/10/37,M,HAROLD,b'75',b'07/10/37',b'harold',b'melvin jr',b'm'
0,0.9664583035877773,84,CHAVAS JR,07/10/37,M,HAROLD,b'75',b'07/10/37',b'harold',b'melvin jr',b'm'
0,0.9505081545738947,85,FAGEN JR,07/10/37,M,HAROLD,b'75',b'07/10/37',b'harold',b'melvin jr',b'm'
0,0.9505081545738947,86,FAGEN JR,07/10/37,M,HAROLD,b'75',b'07/10/37',b'harold',b'melvin jr',b'm'
26,,87,FAGEN JR,07/10/37,M,GEORGE,,,,,
27,,88,GRIFFIN JR,07/10/37,M,DARH,,,,,
19,0.9868527054786682,89,GRIFFIN JR,10/07/37,M,DARL,b'89',b'10/07/37',b'darl',b'griffin jr',b'm'
19,0.9868527054786682,90,GRIFFIN JR,07/05/37,M,DARL,b'89',b'10/07/37',b'darl',b'griffin jr',b'm'
20,0.9802244305610657,91,GRIFFIN JR,07/05/37,M,CLIFFORD,b'91',b'07/05/37',b'clifford',b'griffin jr',b'm'
20,0.9802244305610657,92,GRIFFIN JR,07/05/37,M,CLIFFORD,b'91',b'07/05/37',b'clifford',b'griffin jr',b'm'
20,0.9802244305610657,93,GRIFFIN JR,07/05/37,M,CLIFFORD,b'91',b'07/05/37',b'clifford',b'griffin jr',b'm'
20,0.9407849907875061,94,GRIFFIN JR,07/05/37,M,CLARENCE,b'91',b'07/05/37',b'clifford',b'griffin jr',b'm'
21,0.9999297708272934,95,HANNA,24/11/34,M,ADDISON J,b'95',b'24/11/34',b'addison',b'hanna',b'm'
21,0.9999257028102875,96,HANNA,24/11/34,M,ADDISON JOHN,b'95',b'24/11/34',b'addison',b'hanna',b'm'
21,0.9999354034662247,97,HANNA,24/11/34,M,ADDISON,b'95',b'24/11/34',b'addison',b'hanna',b'm'
21,0.9999354034662247,98,HANNA,24/11/34,M,ADDISON,b'95',b'24/11/34',b'addison',b'hanna',b'm'
21,0.9999354034662247,99,HANNA,24/11/34,M,ADDISON,b'95',b'24/11/34',b'addison',b'hanna',b'm'
28,,100,GALETICH JR,15/10/32,M,ADDISON,,,,,
4,0.9999214112758636,101,FUNARO JONES,06/12/37,F,HARRIET,b'101',b'06/12/37',b'harriet',b'funaro j',b'f'
4,0.9999255836009979,102,FUNARO J,06/12/37,F,HARRIET,b'101',b'06/12/37',b'harriet',b'funaro j',b'f'
4,0.9999210238456726,103,FUNARO,06/12/37,F,HARRIET,b'101',b'06/12/37',b'harriet',b'funaro j',b'f'
